Memory & Cache/Part 02/cpu_wavedata_Grp18CPU.vcd
$date
	Tue Mar 08 15:15:51 2022
$end
$version
	Icarus Verilog
$end
$timescale
	100ps
$end
$scope module cpu_tb $end
$scope module mycpu $end
$scope module registerInstance $end
$var reg 8 ! \register[0] [7:0] $end
$upscope $end
$upscope $end
$upscope $end
$scope module cpu_tb $end
$scope module mycpu $end
$scope module registerInstance $end
$var reg 8 " \register[1] [7:0] $end
$upscope $end
$upscope $end
$upscope $end
$scope module cpu_tb $end
$scope module mycpu $end
$scope module registerInstance $end
$var reg 8 # \register[2] [7:0] $end
$upscope $end
$upscope $end
$upscope $end
$scope module cpu_tb $end
$scope module mycpu $end
$scope module registerInstance $end
$var reg 8 $ \register[3] [7:0] $end
$upscope $end
$upscope $end
$upscope $end
$scope module cpu_tb $end
$scope module mycpu $end
$scope module registerInstance $end
$var reg 8 % \register[4] [7:0] $end
$upscope $end
$upscope $end
$upscope $end
$scope module cpu_tb $end
$scope module mycpu $end
$scope module registerInstance $end
$var reg 8 & \register[5] [7:0] $end
$upscope $end
$upscope $end
$upscope $end
$scope module cpu_tb $end
$scope module mycpu $end
$scope module registerInstance $end
$var reg 8 ' \register[6] [7:0] $end
$upscope $end
$upscope $end
$upscope $end
$scope module cpu_tb $end
$scope module mycpu $end
$scope module registerInstance $end
$var reg 8 ( \register[7] [7:0] $end
$upscope $end
$upscope $end
$upscope $end
$scope module cpu_tb $end
$var wire 1 ) write $end
$var wire 8 * regOut1 [7:0] $end
$var wire 8 + readData [7:0] $end
$var wire 1 , read $end
$var wire 32 - mem_readdata [31:0] $end
$var wire 1 . mem_busywait $end
$var wire 32 / mem_Writedata [31:0] $end
$var wire 1 0 mem_Write $end
$var wire 1 1 mem_Read $end
$var wire 6 2 mem_Address [5:0] $end
$var wire 1 3 busyWait $end
$var wire 8 4 aluResult [7:0] $end
$var wire 32 5 PC [31:0] $end
$var reg 1 6 CLK $end
$var reg 32 7 INSTRUCTION [31:0] $end
$var reg 1 8 RESET $end
$scope module my_data_memory $end
$var wire 1 6 clock $end
$var wire 1 8 reset $end
$var wire 32 9 writedata [31:0] $end
$var wire 1 0 write $end
$var wire 1 1 read $end
$var wire 6 : address [5:0] $end
$var reg 1 . busywait $end
$var reg 1 ; readaccess $end
$var reg 32 < readdata [31:0] $end
$var reg 1 = writeaccess $end
$var integer 32 > i [31:0] $end
$upscope $end
$scope module mycpu $end
$var wire 1 6 CLK $end
$var wire 32 ? INSTRUCTION [31:0] $end
$var wire 1 8 RESET $end
$var wire 1 @ writeenable $end
$var wire 1 A write_from_memory $end
$var wire 3 B writeReg_add [2:0] $end
$var wire 1 ) write $end
$var wire 8 C twoscomplement [7:0] $end
$var wire 1 D sub_trigger $end
$var wire 8 E regOut2 [7:0] $end
$var wire 8 F regOut1 [7:0] $end
$var wire 8 G readdata [7:0] $end
$var wire 3 H readReg2_add [2:0] $end
$var wire 3 I readReg1_add [2:0] $end
$var wire 1 , read $end
$var wire 8 J opcode [7:0] $end
$var wire 8 K offset7 [7:0] $end
$var wire 32 L offset32 [31:0] $end
$var wire 8 M mux3_out [7:0] $end
$var wire 8 N mux2_Out [7:0] $end
$var wire 8 O mux1_Out [7:0] $end
$var wire 1 P j $end
$var wire 8 Q immediate [7:0] $end
$var wire 1 R imm_trigger $end
$var wire 1 3 busywait $end
$var wire 1 S beqOK $end
$var wire 1 T beqJOK $end
$var wire 1 U beq $end
$var wire 3 V alu_op [2:0] $end
$var wire 8 W aluResult [7:0] $end
$var wire 32 X PCtobeExecuted [31:0] $end
$var wire 32 Y PCNEXT [31:0] $end
$var wire 32 Z PCJBeqNext [31:0] $end
$var wire 32 [ PC [31:0] $end
$var wire 1 \ BeqResult $end
$scope module ANDInstance $end
$var wire 1 U BEQ $end
$var wire 1 \ ALU_ZERO $end
$var reg 1 S BEQ_OK $end
$upscope $end
$scope module MUX32Instance $end
$var wire 32 ] PC_NEXT [31:0] $end
$var wire 32 ^ PC_JBEQ_NEXT [31:0] $end
$var wire 1 T BEQ_J_OK $end
$var reg 32 _ PC_tobe_Executed [31:0] $end
$upscope $end
$scope module ORInstance $end
$var wire 1 S BEQ_OK $end
$var wire 1 P J $end
$var reg 1 T BEQ_J_OK $end
$upscope $end
$scope module aluInstance $end
$var wire 8 ` orResult [7:0] $end
$var wire 8 a fwdResult [7:0] $end
$var wire 8 b andResult [7:0] $end
$var wire 8 c addResult [7:0] $end
$var wire 8 d DATA2 [7:0] $end
$var wire 8 e DATA1 [7:0] $end
$var wire 3 f ALUOP [2:0] $end
$var reg 8 g ALURESULT [7:0] $end
$var reg 1 \ BEQRESULT $end
$scope module add1 $end
$var wire 8 h RESULT [7:0] $end
$var wire 8 i DATA2 [7:0] $end
$var wire 8 j DATA1 [7:0] $end
$upscope $end
$scope module and1 $end
$var wire 8 k RESULT [7:0] $end
$var wire 8 l DATA2 [7:0] $end
$var wire 8 m DATA1 [7:0] $end
$upscope $end
$scope module fwd1 $end
$var wire 8 n RESULT [7:0] $end
$var wire 8 o DATA2 [7:0] $end
$upscope $end
$scope module or1 $end
$var wire 8 p RESULT [7:0] $end
$var wire 8 q DATA2 [7:0] $end
$var wire 8 r DATA1 [7:0] $end
$upscope $end
$upscope $end
$scope module controlUnitInstance $end
$var wire 3 s RT [2:0] $end
$var wire 3 t RS [2:0] $end
$var wire 3 u RD [2:0] $end
$var wire 8 v OPCODE [7:0] $end
$var wire 1 3 BUSYWAIT $end
$var reg 3 w ALU_OP [2:0] $end
$var reg 1 U BEQ $end
$var reg 1 R IMM_TRIGGER $end
$var reg 1 P J $end
$var reg 1 , READ $end
$var reg 1 D SUB_TRIGGER $end
$var reg 1 ) WRITE $end
$var reg 1 @ WRITE_ENABLE $end
$var reg 1 A WRITE_FROM_MEMORY $end
$upscope $end
$scope module decoderInstance $end
$var wire 32 x INSTRUCTION [31:0] $end
$var reg 8 y IMMEDIATE [7:0] $end
$var reg 8 z OFFSET [7:0] $end
$var reg 8 { OPCODE [7:0] $end
$var reg 3 | RD [2:0] $end
$var reg 3 } RS [2:0] $end
$var reg 3 ~ RT [2:0] $end
$upscope $end
$scope module mux1 $end
$var wire 1 D MUXSELECT $end
$var wire 8 !" REG2 [7:0] $end
$var wire 8 "" REG1 [7:0] $end
$var reg 8 #" MUXOUT [7:0] $end
$upscope $end
$scope module mux2 $end
$var wire 1 R MUXSELECT $end
$var wire 8 $" REG1 [7:0] $end
$var wire 8 %" REG2 [7:0] $end
$var reg 8 &" MUXOUT [7:0] $end
$upscope $end
$scope module mux3 $end
$var wire 1 A MUXSELECT $end
$var wire 8 '" REG1 [7:0] $end
$var wire 8 (" REG2 [7:0] $end
$var reg 8 )" MUXOUT [7:0] $end
$upscope $end
$scope module pcAdderInstance $end
$var wire 32 *" PC [31:0] $end
$var reg 32 +" PC_NEXT [31:0] $end
$upscope $end
$scope module pcInstance $end
$var wire 1 6 CLK $end
$var wire 32 ," PC_tobe_Executed [31:0] $end
$var wire 1 8 RESET $end
$var wire 1 3 BUSYWAIT $end
$var reg 32 -" PC [31:0] $end
$upscope $end
$scope module pcJBeqAdder $end
$var wire 32 ." INSTRUCTION [31:0] $end
$var wire 32 /" PC_NEXT [31:0] $end
$var wire 32 0" OFFSET_32 [31:0] $end
$var reg 32 1" PC_JBEQ_NEXT [31:0] $end
$upscope $end
$scope module registerInstance $end
$var wire 1 6 CLK $end
$var wire 8 2" IN [7:0] $end
$var wire 3 3" INADDRESS [2:0] $end
$var wire 3 4" OUT1ADDRESS [2:0] $end
$var wire 3 5" OUT2ADDRESS [2:0] $end
$var wire 8 6" REGOUT1 [7:0] $end
$var wire 8 7" REGOUT2 [7:0] $end
$var wire 1 8 RESET $end
$var wire 1 @ WRITE $end
$var integer 32 8" index [31:0] $end
$upscope $end
$scope module shiftExtensionInstance $end
$var wire 8 9" CURRENT_OFFSET [7:0] $end
$var reg 32 :" UPDATED_OFFSET [31:0] $end
$var integer 32 ;" counter [31:0] $end
$upscope $end
$scope module twoscomplementInstance $end
$var wire 8 <" VALUE [7:0] $end
$var reg 8 =" TWOS_COMPLEMENT [7:0] $end
$var reg 8 >" Temp [7:0] $end
$upscope $end
$upscope $end
$scope module mydata_cache $end
$var wire 8 ?" ADDRESS [7:0] $end
$var wire 1 6 CLOCK $end
$var wire 1 . Mem_BUSYWAIT $end
$var wire 32 @" Mem_READDATA [31:0] $end
$var wire 1 , READ $end
$var wire 1 8 RESET $end
$var wire 8 A" WRIITEDATA [7:0] $end
$var wire 1 ) WRITE $end
$var wire 3 B" current_tag [2:0] $end
$var wire 1 C" dirty_bit $end
$var wire 1 D" hit $end
$var wire 1 E" valid_bit $end
$var wire 1 F" comparator_result $end
$var reg 1 3 BUSYWAIT $end
$var reg 6 G" Mem_ADDRESS [5:0] $end
$var reg 1 1 Mem_READ $end
$var reg 1 0 Mem_WRITE $end
$var reg 32 H" Mem_WRITEDATA [31:0] $end
$var reg 8 I" READDATA [7:0] $end
$var reg 32 J" data_block [31:0] $end
$var reg 2 K" next_state [1:0] $end
$var reg 1 L" readaccess $end
$var reg 2 M" state [1:0] $end
$var reg 1 N" writeaccess $end
$var integer 32 O" i [31:0] $end
$upscope $end
$upscope $end
$enddefinitions $end
#0
$dumpvars
b1000 O"
xN"
b0 M"
xL"
b0 K"
bx J"
bx I"
bx H"
bx G"
xF"
xE"
xD"
xC"
bx B"
bx A"
bx @"
bx ?"
bx >"
bx ="
bx <"
bx ;"
bx :"
bx 9"
b1000 8"
bx 7"
bx 6"
bx 5"
bx 4"
bx 3"
bx 2"
bx 1"
bx 0"
bx /"
bx ."
bx -"
bx ,"
bx +"
bx *"
bx )"
bx ("
bx '"
bx &"
bx %"
bx $"
bx #"
bx ""
bx !"
bx ~
bx }
bx |
bx {
bx z
bx y
bx x
bx w
bx v
bx u
bx t
bx s
bx r
bx q
bx p
bx o
bx n
bx m
bx l
bx k
bx j
bx i
bx h
bx g
bx f
bx e
bx d
bx c
bx b
bx a
bx `
bx _
bx ^
bx ]
x\
bx [
bx Z
bx Y
bx X
bx W
bx V
xU
xT
xS
xR
bx Q
xP
bx O
bx N
bx M
bx L
bx K
bx J
bx I
bx H
bx G
bx F
bx E
xD
bx C
bx B
xA
x@
bx ?
b100000000 >
0=
bx <
0;
bx :
bx 9
18
bx 7
06
bx 5
bx 4
03
bx 2
01
00
bx /
0.
bx -
0,
bx +
bx *
0)
bx (
bx '
bx &
bx %
bx $
bx #
bx "
bx !
$end
#40
16
#50
b0 (
b0 '
b0 &
b0 %
b0 $
b0 #
b0 "
b0 !
b1000 8"
b0 5
b0 [
b0 *"
b0 -"
#60
b100 X
b100 _
b100 ,"
b100 Y
b100 ]
b100 +"
b100 /"
#70
b0 B
b0 u
b0 |
b0 3"
b0 I
b0 s
b0 ~
b0 4"
b1 H
b1 t
b1 }
b1 5"
b1001 Q
b1001 y
b1001 %"
b0 J
b0 v
b0 {
b1001 7
b1001 ?
b1001 x
b1001 ."
#80
0T
0S
b1001 N
b1001 d
b1001 i
b1001 l
b1001 o
b1001 q
b1001 &"
0A
0U
0P
0D
1@
1R
b0 V
b0 f
b0 w
06
#90
b1001 M
b1001 )"
b1001 2"
b1001 4
b1001 W
b1001 g
b1001 '"
b1001 ?"
b0 O
b0 #"
b0 $"
b0 >"
bx1xx1 `
bx1xx1 p
b0x00x b
b0x00x k
b1001 a
b1001 n
b0 *
b0 F
b0 e
b0 j
b0 m
b0 r
b0 6"
b0 A"
b0 E
b0 ""
b0 7"
b0 <"
#100
0D"
b1000 O"
0E"
0C"
b1001 `
b1001 p
b0 b
b0 k
b0 C
b0 !"
b0 ="
08
#110
0\
b1001 c
b1001 h
#120
16
#130
b1001 !
b100 5
b100 [
b100 *"
b100 -"
#140
b1000 X
b1000 _
b1000 ,"
b1000 Y
b1000 ]
b1000 +"
b1000 /"
#150
b1 N
b1 d
b1 i
b1 l
b1 o
b1 q
b1 &"
b1 B
b1 u
b1 |
b1 3"
b1 Q
b1 y
b1 %"
b1001 *
b1001 F
b1001 e
b1001 j
b1001 m
b1001 r
b1001 6"
b1001 A"
b10000000000000001 7
b10000000000000001 ?
b10000000000000001 x
b10000000000000001 ."
#160
b1 M
b1 )"
b1 2"
b1 4
b1 W
b1 g
b1 '"
b1 ?"
b1 a
b1 n
b1 b
b1 k
06
#170
b1010 c
b1010 h
#200
16
#210
b1 "
b1000 5
b1000 [
b1000 *"
b1000 -"
#220
b1100 X
b1100 _
b1100 ,"
b1100 Y
b1100 ]
b1100 +"
b1100 /"
#230
b1 O
b1 #"
b1 $"
b11111111 >"
b0 B
b0 u
b0 |
b0 3"
b1010 J
b1010 v
b1010 {
b1 E
b1 ""
b1 7"
b1 <"
b1010000000000000000000000001 7
b1010000000000000000000000001 ?
b1010000000000000000000000001 x
b1010000000000000000000000001 ."
#240
b1 K"
1N"
1L"
13
1)
0R
0@
b11111111 C
b11111111 !"
b11111111 ="
06
#280
1;
1.
b0 2
b0 :
b0 G"
11
b1 K"
b1 M"
16
#320
06
#360
16
#400
06
#440
16
#480
06
#520
16
#560
06
#600
16
#640
06
#680
16
#720
06
#760
16
bx00000000 -
bx00000000 <
bx00000000 @"
#800
06
#840
16
#880
06
#920
16
#960
06
#1000
16
#1040
06
#1080
16
#1120
06
#1160
16
bx0000000000000000 -
bx0000000000000000 <
bx0000000000000000 @"
#1200
06
#1240
16
#1280
06
#1320
16
#1360
06
#1400
16
#1440
06
#1480
16
#1520
06
#1560
16
bx000000000000000000000000 -
bx000000000000000000000000 <
bx000000000000000000000000 @"
#1600
06
#1640
16
#1680
06
#1720
16
#1760
06
#1800
16
#1840
06
#1880
16
#1920
06
#1960
bx 2
bx :
bx G"
01
b11 M"
b0 K"
16
0;
0.
b0 -
b0 <
b0 @"
#1980
xD"
b0 J"
1E"
b0 B"
#1989
0L"
b0 +
b0 G
b0 ("
b0 I"
1D"
1F"
#2000
06
#2040
0)
03
b0 M"
16
#2050
0N"
#2060
b100100000000 J"
1C"
#2080
06
#2120
16
#2130
b1100 5
b1100 [
b1100 *"
b1100 -"
#2140
b10000 X
b10000 _
b10000 ,"
b10000 Y
b10000 ]
b10000 +"
b10000 /"
#2150
b1 I
b1 s
b1 ~
b1 4"
b0 H
b0 t
b0 }
b0 5"
b0 Q
b0 y
b0 %"
b1011 J
b1011 v
b1011 {
b1011000000000000000100000000 7
b1011000000000000000100000000 ?
b1011000000000000000100000000 x
b1011000000000000000100000000 ."
#2160
b1001 +
b1001 G
b1001 ("
b1001 I"
1N"
0L"
13
b0 N
b0 d
b0 i
b0 l
b0 o
b0 q
b0 &"
1)
1R
06
#2170
b0 M
b0 )"
b0 2"
b0 +
b0 G
b0 ("
b0 I"
0L"
b0 4
b0 W
b0 g
b0 '"
b0 ?"
b1001 O
b1001 #"
b1001 $"
b11110111 >"
b0 b
b0 k
b0 a
b0 n
b1 *
b1 F
b1 e
b1 j
b1 m
b1 r
b1 6"
b1 A"
b1001 E
b1001 ""
b1001 7"
b1001 <"
#2180
b1 `
b1 p
b11110111 C
b11110111 !"
b11110111 ="
#2190
b1 c
b1 h
#2200
0)
03
16
#2210
0N"
#2220
b100100000001 J"
#2240
06
#2280
16
#2290
b10000 5
b10000 [
b10000 *"
b10000 -"
#2300
b10100 X
b10100 _
b10100 ,"
b10100 Y
b10100 ]
b10100 +"
b10100 /"
#2310
b1 N
b1 d
b1 i
b1 l
b1 o
b1 q
b1 &"
b10 B
b10 u
b10 |
b10 3"
b0 I
b0 s
b0 ~
b0 4"
b1 H
b1 t
b1 }
b1 5"
b1 Q
b1 y
b1 %"
b1000 J
b1000 v
b1000 {
b1000000000100000000000000001 7
b1000000000100000000000000001 ?
b1000000000100000000000000001 x
b1000000000100000000000000001 ."
#2320
b1001 M
b1001 )"
b1001 2"
b1001 +
b1001 G
b1001 ("
b1001 I"
b1 4
b1 W
b1 g
b1 '"
b1 ?"
1N"
0L"
13
b1001 N
b1001 d
b1001 i
b1001 l
b1001 o
b1001 q
b1001 &"
b1 b
b1 k
b1 a
b1 n
1A
1,
0R
1@
06
#2330
0L"
b1 N
b1 d
b1 i
b1 l
b1 o
b1 q
b1 &"
b1001 4
b1001 W
b1001 g
b1001 '"
b1001 ?"
b1 O
b1 #"
b1 $"
b11111111 >"
b1001 `
b1001 p
b1001 a
b1001 n
b1001 *
b1001 F
b1001 e
b1001 j
b1001 m
b1001 r
b1001 6"
b1001 A"
b1 E
b1 ""
b1 7"
b1 <"
#2340
b1 K"
1L"
0D"
b1 4
b1 W
b1 g
b1 '"
b1 ?"
bx J"
bx B"
0E"
0C"
b1 a
b1 n
b11111111 C
b11111111 !"
b11111111 ="
#2349
xF"
#2350
xD"
b0 K"
b100100000001 J"
b0 B"
1E"
1C"
b1010 c
b1010 h
#2359
0L"
1D"
1F"
#2360
0,
03
16
#2370
b1001 #
0N"
#2400
06
#2440
16
#2450
b1001 #
b10100 5
b10100 [
b10100 *"
b10100 -"
#2460
b11000 X
b11000 _
b11000 ,"
b11000 Y
b11000 ]
b11000 +"
b11000 /"
#2470
b11 B
b11 u
b11 |
b11 3"
b1000000000110000000000000001 7
b1000000000110000000000000001 ?
b1000000000110000000000000001 x
b1000000000110000000000000001 ."
#2480
1N"
0L"
13
1,
06
#2520
0,
03
16
#2530
b1001 $
0N"
#2560
06
#2600
16
#2610
b1001 $
b11000 5
b11000 [
b11000 *"
b11000 -"
#2620
b11100 X
b11100 _
b11100 ,"
b11100 Y
b11100 ]
b11100 +"
b11100 /"
#2630
b100 B
b100 u
b100 |
b100 3"
b11 J
b11 v
b11 {
b11000001000000000000000001 7
b11000001000000000000000001 ?
b11000001000000000000000001 x
b11000001000000000000000001 ."
#2640
b11111111 N
b11111111 d
b11111111 i
b11111111 l
b11111111 o
b11111111 q
b11111111 &"
b1 M
b1 )"
b1 2"
b11111111 O
b11111111 #"
b11111111 $"
0A
1D
b1 V
b1 f
b1 w
06
#2650
b1010 M
b1010 )"
b1010 2"
b1010 4
b1010 W
b1010 g
b1010 '"
b1010 ?"
b11111111 `
b11111111 p
b1001 b
b1001 k
b11111111 a
b11111111 n
#2660
b1000 M
b1000 )"
b1000 2"
0D"
b1000 4
b1000 W
b1000 g
b1000 '"
b1000 ?"
bx J"
bx B"
0E"
0C"
b1000 c
b1000 h
#2669
xF"
#2680
16
#2690
b1000 %
b11100 5
b11100 [
b11100 *"
b11100 -"
#2700
b100000 X
b100000 _
b100000 ,"
b100000 Y
b100000 ]
b100000 +"
b100000 /"
#2710
b0 B
b0 u
b0 |
b0 3"
b100 I
b100 s
b100 ~
b100 4"
b10 H
b10 t
b10 }
b10 5"
b10 Q
b10 y
b10 %"
b1011 J
b1011 v
b1011 {
b1011000000000000010000000010 7
b1011000000000000010000000010 ?
b1011000000000000010000000010 x
b1011000000000000010000000010 ."
#2720
b1 K"
1N"
1L"
13
b1 O
b1 #"
b1 $"
b10 N
b10 d
b10 i
b10 l
b10 o
b10 q
b10 &"
1)
0D
1R
0@
b0 V
b0 f
b0 w
06
#2730
b10 M
b10 )"
b10 2"
b10 4
b10 W
b10 g
b10 '"
b10 ?"
b1001 O
b1001 #"
b1001 $"
b11110111 >"
b1011 `
b1011 p
b0 b
b0 k
b10 a
b10 n
b1000 *
b1000 F
b1000 e
b1000 j
b1000 m
b1000 r
b1000 6"
b1000 A"
b1001 E
b1001 ""
b1001 7"
b1001 <"
#2740
xD"
b0 K"
b100100000001 J"
b0 B"
1E"
1C"
b1010 `
b1010 p
b11110111 C
b11110111 !"
b11110111 ="
#2749
0L"
b0 +
b0 G
b0 ("
b0 I"
1D"
1F"
#2750
b1010 c
b1010 h
#2760
0)
03
16
#2770
0N"
#2780
b10000000100100000001 J"
#2800
06
#2840
16
#2850
b100000 5
b100000 [
b100000 *"
b100000 -"
#2860
b100100 X
b100100 _
b100100 ,"
b100100 Y
b100100 ]
b100100 +"
b100100 /"
#2870
b101 B
b101 u
b101 |
b101 3"
b0 I
b0 s
b0 ~
b0 4"
b1001 J
b1001 v
b1001 {
b1001000001010000000000000010 7
b1001000001010000000000000010 ?
b1001000001010000000000000010 x
b1001000001010000000000000010 ."
#2880
b1000 +
b1000 G
b1000 ("
b1000 I"
b1000 M
b1000 )"
b1000 2"
1N"
0L"
13
1A
1,
1@
06
#2890
b1001 *
b1001 F
b1001 e
b1001 j
b1001 m
b1001 r
b1001 6"
b1001 A"
#2900
b1011 `
b1011 p
#2910
b1011 c
b1011 h
#2920
0,
03
16
#2930
b1000 &
0N"
#2940
b10010000100100000001 J"
#2960
06
#3000
16
#3010
b1000 &
b100100 5
b100100 [
b100100 *"
b100100 -"
#3020
b101000 X
b101000 _
b101000 ,"
b101000 Y
b101000 ]
b101000 +"
b101000 /"
#3030
b100000 N
b100000 d
b100000 i
b100000 l
b100000 o
b100000 q
b100000 &"
b0 B
b0 u
b0 |
b0 3"
b100 I
b100 s
b100 ~
b100 4"
b0 H
b0 t
b0 }
b0 5"
b100000 Q
b100000 y
b100000 %"
b1011 J
b1011 v
b1011 {
b1011000000000000010000100000 7
b1011000000000000010000100000 ?
b1011000000000000010000100000 x
b1011000000000000010000100000 ."
#3040
b1 +
b1 G
b1 ("
b1 I"
b100000 4
b100000 W
b100000 g
b100000 '"
b100000 ?"
b100000 M
b100000 )"
b100000 2"
1N"
0L"
13
b101001 `
b101001 p
b100000 a
b100000 n
0A
1)
0@
06
#3049
b10 K"
0D"
0F"
#3050
b101001 c
b101001 h
b1000 *
b1000 F
b1000 e
b1000 j
b1000 m
b1000 r
b1000 6"
b1000 A"
#3060
b101000 `
b101000 p
#3070
b101000 c
b101000 h
#3080
1=
1.
b10010000100100000001 /
b10010000100100000001 9
b10010000100100000001 H"
b0 2
b0 :
b0 G"
10
b10 K"
b10 M"
16
